module travel-golang

go 1.20

require (
	gorm.io/driver/postgres v1.5.0
	gorm.io/gorm v1.25.1
)

require (
	github.com/dgrijalva/jwt-go v3.2.0+incompatible // indirect
	github.com/go-playground/locales v0.14.1 // indirect
	github.com/go-playground/universal-translator v0.18.1 // indirect
	github.com/go-playground/validator/v10 v10.13.0 // indirect
	github.com/golang-jwt/jwt v3.2.2+incompatible // indirect
	github.com/google/subcommands v1.0.1 // indirect
	github.com/google/wire v0.5.0 // indirect
	github.com/jackc/pgpassfile v1.0.0 // indirect
	github.com/jackc/pgservicefile v0.0.0-20221227161230-091c0ba34f0a // indirect
	github.com/jackc/pgx/v5 v5.3.1 // indirect
	github.com/jinzhu/inflection v1.0.0 // indirect
	github.com/jinzhu/now v1.1.5 // indirect
	github.com/julienschmidt/httprouter v1.3.0 // indirect
	github.com/labstack/echo/v4 v4.10.2 // indirect
	github.com/labstack/gommon v0.4.0 // indirect
	github.com/leodido/go-urn v1.2.4 // indirect
	github.com/mattn/go-colorable v0.1.13 // indirect
	github.com/mattn/go-isatty v0.0.18 // indirect
	github.com/pmezard/go-difflib v1.0.0 // indirect
	github.com/valyala/bytebufferpool v1.0.0 // indirect
	github.com/valyala/fasttemplate v1.2.2 // indirect
	golang.org/x/crypto v0.9.0 // indirect
	golang.org/x/mod v0.8.0 // indirect
	golang.org/x/net v0.10.0 // indirect
	golang.org/x/sys v0.8.0 // indirect
	golang.org/x/text v0.9.0 // indirect
	golang.org/x/time v0.3.0 // indirect
	golang.org/x/tools v0.6.0 // indirect
)
